E,E,WN,E,WN,E,E,WN,E,WN,E,E
E,CBRRF,CBF,CBF,CBRRFS,E,E,CBRRF,CBF,CBF,CBRRFS,E
WW,CBFN,GRR,WSLV,CBFS,GRL,E,CBFN,GRR,E,CBFS,WE
E,CBFN,RO,GRRLVS,CBFS,WWLH,WELH,CBFN,RT,GRR,CBFS,E
WW,CBRRFN,CBFW,CBFWLV,CBRRFW,F1,GRL,CBRRFN,CBFW,CBFW,CBRRFW,WE
E,E,E,LVS,GRL,E,E,E,WNLV,GRL,E,E
E,F3,GRL,WSLV,E,E,E,GRL,LVN,E,E,E
WW,CBRRF,CBF,CBF,CBRRFS,GRL,E,CBRRF,CBFLV,CBF,CBRRFS,WE
E,CBFN,GRR,RT,CBFS,WWLH,WELH,CBFN,GRRLV,RO,CBFS,E
WW,CBFN,E,GRR,CBFS,E,GRL,CBFN,WNLV,GRR,CBFS,WE
E,CBRRFN,CBFW,CBFW,CBRRFW,E,E,CBRRFN,CBFW,CBFW,CBRRFW,E
E,E,WS,E,WS,E,E,WS,E,WS,F2,E
